{
    "SyntaxDefinition": {
        "name": "C++/Qt",
        "extensions": ".c;.h;.cc;.cpp;.hpp"
    },    
    "Template": {
        "rule": "<[^<\\\\]*(\\\\.[^>\\\\]*)*>",
        "foreground": "Fuchsia"
    },
    "MethodName": {
        "rule": "[\\d\\w_]+(?=(\\s*\\())",
        "foreground": "#b8bb26",
        "font": "bold"
    },
    "Digits": {
        "rule": "\\b0[xX][0-9a-fA-F]+|(\\b\\d+(\\.[0-9]+)?|\\.[0-9]+)([eE][+-]?[0-9]+)?",
        "foreground": "#d3869b"
    },
    "QtWords": {
        "rule": "(\\bQ[A-Z]{1}\\w+\\b)|(\\bq[A-Z]{1}\\w+\\b)|(\\bQt\\b)",
        "foreground": "#d65d0e"
    },
    "CompoundKeywords": {
        "foreground": "#d65d0e",
        "font": "bold",
        "ignoreCase": true,
        "keywords": [
            "override", "finally"
        ]
    },
    "This": {
        "foreground": "#fb4934",
        "font": "bold",
        "ignoreCase": true,
        "keywords": [
            "this"
        ]
    },
    "Operators": {
        "foreground": "#83a598",
        "font": "bold",
        "ignoreCase": true,
        "keywords": [
            "&&", "||", "!="
        ]
    },
    "Namespace": {
        "foreground": "#d65d0e",
        "font": "bold",
        "ignoreCase": true,
        "keywords": [
            "using", "namespace", "signals", "slots"
        ]
    },
    "Friend": {
        "foreground": "#d65d0e",
        "ignoreCase": true,
        "keywords": [
            "friend"
        ]
    },
    "Modifiers": {
        "foreground": "#d64d0e",
        "font": "bold",
        "ignoreCase": true,
        "keywords": [
            "private", "protected", "public", "const", "volatile", "static"
        ]
    },
    "TypeKeywords": {
        "foreground": "#d64d0e",
        "ignoreCase": true,
        "keywords": [
            "bool", "char", "unsigned", "union", "virtual", "float", "double", "short",
            "signed", "void", "class", "enum", "struct"
        ]
    },
    "BooleanConstants": {
        "foreground": "#d64d0e",
        "font": "bold",
        "ignoreCase": true,
        "keywords": [
            "true", "false"
        ]
    },
    "Keywords": {
        "foreground": "#d64d0e",
        "font": "bold",
        "ignoreCase": true,
        "keywords": [
            "asm", "auto", "compl", "mutable", "const_cast", "delete", "dynamic_cast",
            "explicit", "export", "extern", "inline", "int", "long", "operator", "register",
            "reinterpret_cast", "sizeof", "static_cast", "template", "typedef", "typeid",
            "typename", "nullptr", "NULL"
        ]
    },
    "Loopkeywords": {
        "foreground": "#d64d0e",
        "font": "bold",
        "ignoreCase": true,
        "keywords": [
            "do", "for", "while", "foreach"
        ]
    },
    "JumpKeywords": {
        "foreground": "#d64d0e",
        "font": "bold",
        "ignoreCase": true,
        "keywords": [
            "break", "continue", "goto", "return"
        ]
    },
    "ExceptionHandling": {
        "foreground": "#d64d0e",
        "font": "bold",
        "ignoreCase": true,
        "keywords": [
            "catch", "throw", "try"
        ]
    },
    "ControlFlow": {
        "foreground": "#d64d0e",
        "font": "bold",
        "ignoreCase": true,
        "keywords": [
            "case", "else", "if", "switch", "default"
        ]
    },
    "CommentBlock": {
        "foreground": "#d5c4a1"
    },
    "Comment": {
        "foreground": "#d5c4a1"
    },
    "String": {
        "foreground": "#fabd2f"
    },    
    "Object": {
        "rule": "(\\b[\\w]+\\b)(?=[.])|(\\b[\\w]+\\b)(?=->)",
        "foreground": "#b8bb26"
    },
    "Preprocessor": {
        "foreground": "#8ec07c"
    }
}
